Flow report for ALPHA_TTC
Fri Sep 21 18:22:58 2012
Quartus II 64-Bit Version 12.0 Build 232 07/05/2012 Service Pack 1.07 SJ Full Version


---------------------
; Table of Contents ;
---------------------
  1. Legal Notice
  2. Flow Summary
  3. Flow Settings
  4. Flow Non-Default Global Settings
  5. Flow Elapsed Time
  6. Flow OS Summary
  7. Flow Log



----------------
; Legal Notice ;
----------------
Copyright (C) 1991-2012 Altera Corporation
Your use of Altera Corporation's design tools, logic functions 
and other software and tools, and its AMPP partner logic 
functions, and any output files from any of the foregoing 
(including device programming or simulation files), and any 
associated documentation or information are expressly subject 
to the terms and conditions of the Altera Program License 
Subscription Agreement, Altera MegaCore Function License 
Agreement, or other applicable license agreement, including, 
without limitation, that your use is for the sole purpose of 
programming logic devices manufactured by Altera and sold by 
Altera or its authorized distributors.  Please refer to the 
applicable agreement for further details.



+-------------------------------------------------------------------------------+
; Flow Summary                                                                  ;
+---------------------------+---------------------------------------------------+
; Flow Status               ; Successful - Fri Sep 21 18:22:57 2012             ;
; Quartus II 64-Bit Version ; 12.0 Build 232 07/05/2012 SP 1.07 SJ Full Version ;
; Revision Name             ; ALPHA_TTC                                         ;
; Top-level Entity Name     ; ALPHA_TTC                                         ;
; Family                    ; Cyclone                                           ;
; Device                    ; EP1C6Q240C6                                       ;
; Timing Models             ; Final                                             ;
; Total logic elements      ; 3,749 / 5,980 ( 63 % )                            ;
; Total pins                ; 183 / 185 ( 99 % )                                ;
; Total virtual pins        ; 6                                                 ;
; Total memory bits         ; 40,896 / 92,160 ( 44 % )                          ;
; Total PLLs                ; 2 / 2 ( 100 % )                                   ;
+---------------------------+---------------------------------------------------+


+-----------------------------------------+
; Flow Settings                           ;
+-------------------+---------------------+
; Option            ; Setting             ;
+-------------------+---------------------+
; Start date & time ; 09/21/2012 18:22:29 ;
; Main task         ; Compilation         ;
; Revision Name     ; ALPHA_TTC           ;
+-------------------+---------------------+


+----------------------------------------------------------------------------------------------------------------------------------------------------------------------------------------------------------------------------------------------------------------------------------------------------------------------------------------------------------------------------------------------------------------------------------------------------+
; Flow Non-Default Global Settings                                                                                                                                                                                                                                                                                                                                                                                                                   ;
+-------------------------------------+-------------------------------------------------------------------------------------------------------------------------------------------------------------------------------------------------------------------------------------------------------------------------------------------------------------------------------------------------------------+---------------+-------------+------------------+
; Assignment Name                     ; Value                                                                                                                                                                                                                                                                                                                                                       ; Default Value ; Entity Name ; Section Id       ;
+-------------------------------------+-------------------------------------------------------------------------------------------------------------------------------------------------------------------------------------------------------------------------------------------------------------------------------------------------------------------------------------------------------------+---------------+-------------+------------------+
; APEX20K_OPTIMIZATION_TECHNIQUE      ; Speed                                                                                                                                                                                                                                                                                                                                                       ; Balanced      ; --          ; --               ;
; COMPILER_SIGNATURE_ID               ; 18413737877129.134827694803633                                                                                                                                                                                                                                                                                                                              ; --            ; --          ; --               ;
; ENABLE_CLOCK_LATENCY                ; On                                                                                                                                                                                                                                                                                                                                                          ; Off           ; --          ; --               ;
; ENABLE_SIGNALTAP                    ; On                                                                                                                                                                                                                                                                                                                                                          ; --            ; --          ; --               ;
; FITTER_EFFORT                       ; Fast Fit                                                                                                                                                                                                                                                                                                                                                    ; Auto Fit      ; --          ; --               ;
; FLEX10K_OPTIMIZATION_TECHNIQUE      ; Speed                                                                                                                                                                                                                                                                                                                                                       ; Area          ; --          ; --               ;
; IP_TOOL_NAME                        ; LPM_COMPARE                                                                                                                                                                                                                                                                                                                                                 ; --            ; --          ; --               ;
; IP_TOOL_NAME                        ; LPM_RAM_DQ                                                                                                                                                                                                                                                                                                                                                  ; --            ; --          ; --               ;
; IP_TOOL_NAME                        ; LPM_COMPARE                                                                                                                                                                                                                                                                                                                                                 ; --            ; --          ; --               ;
; IP_TOOL_NAME                        ; LPM_MUX                                                                                                                                                                                                                                                                                                                                                     ; --            ; --          ; --               ;
; IP_TOOL_NAME                        ; LPM_COMPARE                                                                                                                                                                                                                                                                                                                                                 ; --            ; --          ; --               ;
; IP_TOOL_NAME                        ; LPM_COUNTER                                                                                                                                                                                                                                                                                                                                                 ; --            ; --          ; --               ;
; IP_TOOL_VERSION                     ; 9.1                                                                                                                                                                                                                                                                                                                                                         ; --            ; --          ; --               ;
; IP_TOOL_VERSION                     ; 9.1                                                                                                                                                                                                                                                                                                                                                         ; --            ; --          ; --               ;
; IP_TOOL_VERSION                     ; 9.1                                                                                                                                                                                                                                                                                                                                                         ; --            ; --          ; --               ;
; IP_TOOL_VERSION                     ; 9.1                                                                                                                                                                                                                                                                                                                                                         ; --            ; --          ; --               ;
; IP_TOOL_VERSION                     ; 9.1                                                                                                                                                                                                                                                                                                                                                         ; --            ; --          ; --               ;
; IP_TOOL_VERSION                     ; 9.1                                                                                                                                                                                                                                                                                                                                                         ; --            ; --          ; --               ;
; MAXII_OPTIMIZATION_TECHNIQUE        ; Speed                                                                                                                                                                                                                                                                                                                                                       ; Balanced      ; --          ; --               ;
; MERCURY_OPTIMIZATION_TECHNIQUE      ; Speed                                                                                                                                                                                                                                                                                                                                                       ; Area          ; --          ; --               ;
; MISC_FILE                           ; lpm_compare11.tdf                                                                                                                                                                                                                                                                                                                                           ; --            ; --          ; --               ;
; MISC_FILE                           ; lpm_compare11.bsf                                                                                                                                                                                                                                                                                                                                           ; --            ; --          ; --               ;
; MISC_FILE                           ; lpm_compare11.inc                                                                                                                                                                                                                                                                                                                                           ; --            ; --          ; --               ;
; MISC_FILE                           ; lpm_ram_dq0.tdf                                                                                                                                                                                                                                                                                                                                             ; --            ; --          ; --               ;
; MISC_FILE                           ; lpm_ram_dq0.bsf                                                                                                                                                                                                                                                                                                                                             ; --            ; --          ; --               ;
; MISC_FILE                           ; lpm_ram_dq0.inc                                                                                                                                                                                                                                                                                                                                             ; --            ; --          ; --               ;
; MISC_FILE                           ; lpm_compare12.tdf                                                                                                                                                                                                                                                                                                                                           ; --            ; --          ; --               ;
; MISC_FILE                           ; lpm_compare12.bsf                                                                                                                                                                                                                                                                                                                                           ; --            ; --          ; --               ;
; MISC_FILE                           ; lpm_compare12.inc                                                                                                                                                                                                                                                                                                                                           ; --            ; --          ; --               ;
; MISC_FILE                           ; lpm_mux1.tdf                                                                                                                                                                                                                                                                                                                                                ; --            ; --          ; --               ;
; MISC_FILE                           ; lpm_mux1.bsf                                                                                                                                                                                                                                                                                                                                                ; --            ; --          ; --               ;
; MISC_FILE                           ; lpm_mux1.inc                                                                                                                                                                                                                                                                                                                                                ; --            ; --          ; --               ;
; MISC_FILE                           ; lpm_compare13.tdf                                                                                                                                                                                                                                                                                                                                           ; --            ; --          ; --               ;
; MISC_FILE                           ; lpm_compare13.bsf                                                                                                                                                                                                                                                                                                                                           ; --            ; --          ; --               ;
; MISC_FILE                           ; lpm_compare13.inc                                                                                                                                                                                                                                                                                                                                           ; --            ; --          ; --               ;
; MISC_FILE                           ; lpm_counter5.tdf                                                                                                                                                                                                                                                                                                                                            ; --            ; --          ; --               ;
; MISC_FILE                           ; lpm_counter5.bsf                                                                                                                                                                                                                                                                                                                                            ; --            ; --          ; --               ;
; MISC_FILE                           ; lpm_counter5.inc                                                                                                                                                                                                                                                                                                                                            ; --            ; --          ; --               ;
; NUM_PARALLEL_PROCESSORS             ; All                                                                                                                                                                                                                                                                                                                                                         ; 1             ; --          ; --               ;
; PARTITION_COLOR                     ; 2147039                                                                                                                                                                                                                                                                                                                                                     ; --            ; --          ; Top              ;
; PARTITION_FITTER_PRESERVATION_LEVEL ; PLACEMENT_AND_ROUTING                                                                                                                                                                                                                                                                                                                                       ; --            ; --          ; Top              ;
; PARTITION_NETLIST_TYPE              ; SOURCE                                                                                                                                                                                                                                                                                                                                                      ; --            ; --          ; Top              ;
; PRE_FLOW_SCRIPT_FILE                ; quartus_sh:update_version.tcl                                                                                                                                                                                                                                                                                                                               ; --            ; --          ; --               ;
; SAFE_STATE_MACHINE                  ; On                                                                                                                                                                                                                                                                                                                                                          ; Off           ; --          ; --               ;
; SAVE_DISK_SPACE                     ; Off                                                                                                                                                                                                                                                                                                                                                         ; On            ; --          ; --               ;
; SEARCH_PATH                         ; FlashProgrammer                                                                                                                                                                                                                                                                                                                                             ; --            ; --          ; --               ;
; SLD_NODE_CREATOR_ID                 ; 110                                                                                                                                                                                                                                                                                                                                                         ; --            ; --          ; auto_signaltap_0 ;
; SLD_NODE_ENTITY_NAME                ; sld_signaltap                                                                                                                                                                                                                                                                                                                                               ; --            ; --          ; auto_signaltap_0 ;
; SLD_NODE_PARAMETER_ASSIGNMENT       ; SLD_POWER_UP_TRIGGER=0                                                                                                                                                                                                                                                                                                                                      ; --            ; --          ; auto_signaltap_0 ;
; SLD_NODE_PARAMETER_ASSIGNMENT       ; SLD_TRIGGER_LEVEL=1                                                                                                                                                                                                                                                                                                                                         ; --            ; --          ; auto_signaltap_0 ;
; SLD_NODE_PARAMETER_ASSIGNMENT       ; SLD_TRIGGER_IN_ENABLED=0                                                                                                                                                                                                                                                                                                                                    ; --            ; --          ; auto_signaltap_0 ;
; SLD_NODE_PARAMETER_ASSIGNMENT       ; SLD_ADVANCED_TRIGGER_ENTITY=basic,1,                                                                                                                                                                                                                                                                                                                        ; --            ; --          ; auto_signaltap_0 ;
; SLD_NODE_PARAMETER_ASSIGNMENT       ; SLD_TRIGGER_LEVEL_PIPELINE=1                                                                                                                                                                                                                                                                                                                                ; --            ; --          ; auto_signaltap_0 ;
; SLD_NODE_PARAMETER_ASSIGNMENT       ; SLD_ENABLE_ADVANCED_TRIGGER=0                                                                                                                                                                                                                                                                                                                               ; --            ; --          ; auto_signaltap_0 ;
; SLD_NODE_PARAMETER_ASSIGNMENT       ; SLD_STATE_FLOW_USE_GENERATED=0                                                                                                                                                                                                                                                                                                                              ; --            ; --          ; auto_signaltap_0 ;
; SLD_NODE_PARAMETER_ASSIGNMENT       ; SLD_STATE_BITS=11                                                                                                                                                                                                                                                                                                                                           ; --            ; --          ; auto_signaltap_0 ;
; SLD_NODE_PARAMETER_ASSIGNMENT       ; SLD_BUFFER_FULL_STOP=1                                                                                                                                                                                                                                                                                                                                      ; --            ; --          ; auto_signaltap_0 ;
; SLD_NODE_PARAMETER_ASSIGNMENT       ; SLD_CURRENT_RESOURCE_WIDTH=1                                                                                                                                                                                                                                                                                                                                ; --            ; --          ; auto_signaltap_0 ;
; SLD_NODE_PARAMETER_ASSIGNMENT       ; SLD_NODE_INFO=805334528                                                                                                                                                                                                                                                                                                                                     ; --            ; --          ; auto_signaltap_0 ;
; SLD_NODE_PARAMETER_ASSIGNMENT       ; SLD_ATTRIBUTE_MEM_MODE=OFF                                                                                                                                                                                                                                                                                                                                  ; --            ; --          ; auto_signaltap_0 ;
; SLD_NODE_PARAMETER_ASSIGNMENT       ; SLD_STORAGE_QUALIFIER_INVERSION_MASK_LENGTH=0                                                                                                                                                                                                                                                                                                               ; --            ; --          ; auto_signaltap_0 ;
; SLD_NODE_PARAMETER_ASSIGNMENT       ; SLD_SEGMENT_SIZE=256                                                                                                                                                                                                                                                                                                                                        ; --            ; --          ; auto_signaltap_0 ;
; SLD_NODE_PARAMETER_ASSIGNMENT       ; SLD_SAMPLE_DEPTH=256                                                                                                                                                                                                                                                                                                                                        ; --            ; --          ; auto_signaltap_0 ;
; SLD_NODE_PARAMETER_ASSIGNMENT       ; SLD_DATA_BITS=158                                                                                                                                                                                                                                                                                                                                           ; --            ; --          ; auto_signaltap_0 ;
; SLD_NODE_PARAMETER_ASSIGNMENT       ; SLD_TRIGGER_BITS=102                                                                                                                                                                                                                                                                                                                                        ; --            ; --          ; auto_signaltap_0 ;
; SLD_NODE_PARAMETER_ASSIGNMENT       ; SLD_INVERSION_MASK=0000000000000000000000000000000000000000000000000000000000000000000000000000000000000000000000000000000000000000000000000000000000000000000000000000000000000000000000000000000000000000000000000000000000000000000000000000000000000000000000000000000000000000000000000000000000000000000000000000000000000000000000000000000000000000 ; --            ; --          ; auto_signaltap_0 ;
; SLD_NODE_PARAMETER_ASSIGNMENT       ; SLD_INVERSION_MASK_LENGTH=328                                                                                                                                                                                                                                                                                                                               ; --            ; --          ; auto_signaltap_0 ;
; SLD_NODE_PARAMETER_ASSIGNMENT       ; SLD_NODE_CRC_LOWORD=48876                                                                                                                                                                                                                                                                                                                                   ; --            ; --          ; auto_signaltap_0 ;
; SLD_NODE_PARAMETER_ASSIGNMENT       ; SLD_NODE_CRC_HIWORD=1994                                                                                                                                                                                                                                                                                                                                    ; --            ; --          ; auto_signaltap_0 ;
; SMART_RECOMPILE                     ; On                                                                                                                                                                                                                                                                                                                                                          ; Off           ; --          ; --               ;
; STATE_MACHINE_PROCESSING            ; Minimal Bits                                                                                                                                                                                                                                                                                                                                                ; Auto          ; --          ; --               ;
; STRATIXII_OPTIMIZATION_TECHNIQUE    ; Speed                                                                                                                                                                                                                                                                                                                                                       ; Balanced      ; --          ; --               ;
; STRATIX_OPTIMIZATION_TECHNIQUE      ; Speed                                                                                                                                                                                                                                                                                                                                                       ; Balanced      ; --          ; --               ;
; USE_SIGNALTAP_FILE                  ; stp1.stp                                                                                                                                                                                                                                                                                                                                                    ; --            ; --          ; --               ;
+-------------------------------------+-------------------------------------------------------------------------------------------------------------------------------------------------------------------------------------------------------------------------------------------------------------------------------------------------------------------------------------------------------------+---------------+-------------+------------------+


+-------------------------------------------------------------------------------------------------------------------------------+
; Flow Elapsed Time                                                                                                             ;
+---------------------------+--------------+-------------------------+---------------------+------------------------------------+
; Module Name               ; Elapsed Time ; Average Processors Used ; Peak Virtual Memory ; Total CPU Time (on all processors) ;
+---------------------------+--------------+-------------------------+---------------------+------------------------------------+
; Analysis & Synthesis      ; 00:00:11     ; 1.0                     ; --                  ; 00:00:07                           ;
; Fitter                    ; 00:00:12     ; 1.9                     ; --                  ; 00:00:12                           ;
; Assembler                 ; 00:00:01     ; 1.0                     ; --                  ; 00:00:01                           ;
; TimeQuest Timing Analyzer ; 00:00:02     ; 1.0                     ; --                  ; 00:00:01                           ;
; Total                     ; 00:00:26     ; --                      ; --                  ; 00:00:21                           ;
+---------------------------+--------------+-------------------------+---------------------+------------------------------------+


+-----------------------------------------------------------------------------------------------+
; Flow OS Summary                                                                               ;
+---------------------------+------------------+------------------+------------+----------------+
; Module Name               ; Machine Hostname ; OS Name          ; OS Version ; Processor type ;
+---------------------------+------------------+------------------+------------+----------------+
; Analysis & Synthesis      ; ladd19.triumf.ca ; Scientific Linux ; 6          ; x86_64         ;
; Fitter                    ; ladd19.triumf.ca ; Scientific Linux ; 6          ; x86_64         ;
; Assembler                 ; ladd19.triumf.ca ; Scientific Linux ; 6          ; x86_64         ;
; TimeQuest Timing Analyzer ; ladd19.triumf.ca ; Scientific Linux ; 6          ; x86_64         ;
+---------------------------+------------------+------------------+------------+----------------+


------------
; Flow Log ;
------------
quartus_map --read_settings_files=on --write_settings_files=off ALPHA_TTC -c ALPHA_TTC
quartus_fit --read_settings_files=off --write_settings_files=off ALPHA_TTC -c ALPHA_TTC
quartus_asm --read_settings_files=off --write_settings_files=off ALPHA_TTC -c ALPHA_TTC
quartus_sta ALPHA_TTC -c ALPHA_TTC



