<internal_error>
	<executable>quartus.exe</executable>
	<sub_system>AFC</sub_system>
	<file>/quartus/gcl/afc/afc_child_frame.cpp</file>
	<line>1817</line>
	<callstack>Stack Trace:
AFC_CHILD_FRAME::OnWndMsg + 0x6D (GCL_AFC)
Ordinal6275 + 0x21 (MFC71)
Ordinal1028 + 0x7C (MFC71)
Ordinal1209 + 0x3A (MFC71)
Ordinal1209 + 0x78 (MFC71)
GetDC + 0x6C (USER32)
EnumDisplayMonitors + 0xF7 (USER32)
DefWindowProcW + 0x183 (USER32)
UserClientDllInitialize + 0x7F0 (USER32)
KiUserCallbackDispatcher + 0x12 (ntdll)
CreateWindowExW + 0x2A6 (USER32)
CreateWindowExA + 0x32 (USER32)
ChangeClipboardChain + 0x1FB (USER32)
DefFrameProcA + 0x45 (USER32)
GetDC + 0x6C (USER32)
GetDC + 0x14E (USER32)
IsWindowUnicode + 0xA0 (USER32)
CallWindowProcA + 0x1A (USER32)
Ordinal1908 + 0x23 (MFC71)
Ordinal6275 + 0x38 (MFC71)
Ordinal1028 + 0x7C (MFC71)
Ordinal1209 + 0x3A (MFC71)
Ordinal1209 + 0x78 (MFC71)
GetDC + 0x6C (USER32)
GetDC + 0x14E (USER32)
GetParent + 0x16B (USER32)
SendMessageA + 0x48 (USER32)
Ordinal1572 + 0xE1 (MFC71)
AFC_CHILD_FRAME::load_frame + 0x5E0 (GCL_AFC)
AFC_EDITOR_TEMPLATE::create_new_frame + 0x7B (GCL_AFC)
AFC_EDITOR_TEMPLATE::open_document_file + 0x72 (GCL_AFC)
AFC_WORKSPACE_MANAGER::open_child_frame + 0x6F (GCL_AFC)
AFC_WORKSPACE_MANAGER::OpenSpecificChildFrame + 0x2A2 (GCL_AFC)
Ordinal18421 + 0xC4 (AOT803AS)

End-trace
</callstack>
	<error>(bar != NULL) &amp;&amp; bar-&gt;Create(this, WS_CLIPSIBLINGS | WS_CLIPCHILDREN | WS_CHILD | WS_VISIBLE | m_s_dock_bar_map[i][1], 0, m_s_dock_bar_map[i][0])</error>
	<date>Tue Apr 17 12:06:09 2007</date>
	<version>Quartus II Version 7.0 Build 33 02/05/2007 SJ Full Version</version>
	<full_error>(bar != NULL) &amp;&amp; bar-&gt;Create(this, WS_CLIPSIBLINGS | WS_CLIPCHILDREN | WS_CHILD | WS_VISIBLE | m_s_dock_bar_map[i][1], 0, m_s_dock_bar_map[i][0])
Quartus II Version 7.0 Build 33 02/05/2007 SJ Full Version </full_error>
</internal_error>
<internal_error>
	<executable>quartus.exe</executable>
	<sub_system>AFC</sub_system>
	<file>/quartus/gcl/afc/afc_child_frame.cpp</file>
	<line>1817</line>
	<callstack>Stack Trace:
AFC_CHILD_FRAME::OnWndMsg + 0x6D (GCL_AFC)
Ordinal6275 + 0x21 (MFC71)
Ordinal1028 + 0x7C (MFC71)
Ordinal1209 + 0x3A (MFC71)
Ordinal1209 + 0x78 (MFC71)
GetDC + 0x6C (USER32)
EnumDisplayMonitors + 0xF7 (USER32)
DefWindowProcW + 0x183 (USER32)
UserClientDllInitialize + 0x7F0 (USER32)
KiUserCallbackDispatcher + 0x12 (ntdll)
CreateWindowExW + 0x2A6 (USER32)
CreateWindowExA + 0x32 (USER32)
ChangeClipboardChain + 0x1FB (USER32)
DefFrameProcA + 0x45 (USER32)
GetDC + 0x6C (USER32)
GetDC + 0x14E (USER32)
IsWindowUnicode + 0xA0 (USER32)
CallWindowProcA + 0x1A (USER32)
Ordinal1908 + 0x23 (MFC71)
Ordinal6275 + 0x38 (MFC71)
Ordinal1028 + 0x7C (MFC71)
Ordinal1209 + 0x3A (MFC71)
Ordinal1209 + 0x78 (MFC71)
GetDC + 0x6C (USER32)
GetDC + 0x14E (USER32)
GetParent + 0x16B (USER32)
SendMessageA + 0x48 (USER32)
Ordinal1572 + 0xE1 (MFC71)
AFC_CHILD_FRAME::load_frame + 0x5E0 (GCL_AFC)
AFC_EDITOR_TEMPLATE::create_new_frame + 0x7B (GCL_AFC)
AFC_EDITOR_TEMPLATE::open_document_file + 0x72 (GCL_AFC)
AFC_WORKSPACE_MANAGER::open_child_frame + 0x6F (GCL_AFC)
AFC_WORKSPACE_MANAGER::OpenSpecificChildFrame + 0x2A2 (GCL_AFC)
Ordinal18421 + 0xC4 (AOT803AS)

End-trace
</callstack>
	<error>(bar != NULL) &amp;&amp; bar-&gt;Create(this, WS_CLIPSIBLINGS | WS_CLIPCHILDREN | WS_CHILD | WS_VISIBLE | m_s_dock_bar_map[i][1], 0, m_s_dock_bar_map[i][0])</error>
	<date>Thu Apr 26 09:44:54 2007</date>
	<version>Quartus II Version 7.0 Build 33 02/05/2007 SJ Full Version</version>
	<full_error>(bar != NULL) &amp;&amp; bar-&gt;Create(this, WS_CLIPSIBLINGS | WS_CLIPCHILDREN | WS_CHILD | WS_VISIBLE | m_s_dock_bar_map[i][1], 0, m_s_dock_bar_map[i][0])
Quartus II Version 7.0 Build 33 02/05/2007 SJ Full Version </full_error>
</internal_error>
<internal_error>
	<executable>quartus</executable>
	<sub_system>ERR</sub_system>
	<file>/net/swbldl1/build/swbuild/quartus/ccl/msg/msg_internal_error.cpp</file>
	<line>724</line>
	<callstack>
	0xfffffffff62686f0: gdiuser32 + 0x1b86f0 (MwSetInputFocusToCurrentApp + 0xd0)
	0xfffffffff627c518: gdiuser32 + 0x1cc518 (MwWMAllowsToTakeFocus + 0x1b8)
	0xfffffffff627c7ca: gdiuser32 + 0x1cc7ca (MwWmProtocolMessage + 0x1ca)
	0xfffffffff6242551: gdiuser32 + 0x192551 (MwEventSideEffects + 0xf31)
	0xfffffffff624314d: gdiuser32 + 0x19314d (MwEventSideEffects + 0x0)
	0xfffffffff6247123: gdiuser32 + 0x197123 (MwEventSideEffects + 0x0)
	0xfffffffff6247a72: gdiuser32 + 0x197a72 (PeekMessageA + 0xb2)
	0xfffffffff6907a03: mfc400s + 0xcda03 (_ZN4CWnd12RunModalLoopEm + 0xd3)
	0xfffffffff6936848: mfc400s + 0xfc848 (_ZN7CDialog7DoModalEv + 0x328)
	0xffffffffeed7deec: pgm_pgmw + 0x41eec (_ZN15PGMW_DEVICE_DLG11OnAddDeviceEv + 0x44)
	0xfffffffff694b977: mfc400s + 0x111977 (_Z18_AfxDispatchCmdMsgP10CCmdTargetjiMS_FvvEPvjP18AFX_CMDHANDLERINFO + 0x237)
	0xfffffffff694ba77: mfc400s + 0x111a77 (_ZN10CCmdTarget8OnCmdMsgEjiPvP18AFX_CMDHANDLERINFO + 0xc7)
	0xfffffffff69358d4: mfc400s + 0xfb8d4 (_ZN7CDialog8OnCmdMsgEjiPvP18AFX_CMDHANDLERINFO + 0x44)
	0xfffffffff69088e5: mfc400s + 0xce8e5 (_ZN4CWnd9OnCommandEjl + 0xb5)
	0xfffffffff69053cf: mfc400s + 0xcb3cf (_ZN4CWnd8OnWndMsgEjjlPl + 0x2cf)
	0x0987a0f9: quartus + 0x18320f9 (_ZN10AFC_DIALOG8OnWndMsgEjjlPl + 0x41)
	0xfffffffff6904d59: mfc400s + 0xcad59 (_ZN4CWnd10WindowProcEjjl + 0x39)
	0xfffffffff6909623: mfc400s + 0xcf623 (_Z14AfxCallWndProcP4CWndP6HWND__jjl + 0xc3)
	0xfffffffff690a0c3: mfc400s + 0xd00c3 (_Z10AfxWndProcP6HWND__jjl + 0x53)
	0xfffffffff6901e9b: mfc400s + 0xc7e9b (_Z14AfxWndProcBaseP6HWND__jjl + 0x5b)
	0xfffffffff629dab9: gdiuser32 + 0x1edab9 (_ZNK19Direct_Win_Msg_FuncclEPK6tagMSG + 0x29)
	0xfffffffff62a02a4: gdiuser32 + 0x1f02a4 (_Z15wcs2mbs_win_msgRK15Win_Msg_ContextPK6tagMSG + 0x144)
	0xfffffffff62a0e32: gdiuser32 + 0x1f0e32 (MwMessageAnsiConvert + 0x42)
	0xfffffffff6230904: gdiuser32 + 0x180904 (MwCallCallWndProc + 0x84)
	0xfffffffff623d795: gdiuser32 + 0x18d795 (MwInternalSendMessage + 0x45)
	0xfffffffff6243a5e: gdiuser32 + 0x193a5e (xxxSendMessageTimeout + 0x27e)
	0xfffffffff6243bc3: gdiuser32 + 0x193bc3 (xxxSendMessageTimeout + 0x0)
	0xfffffffff6245e59: gdiuser32 + 0x195e59 (SendMessageTimeoutW + 0x69)
	0xfffffffff6245ec4: gdiuser32 + 0x195ec4 (SendMessageW + 0x44)
	0xfffffffff61b3c0e: gdiuser32 + 0x103c0e (xxxButtonNotifyParent + 0x5e)
	0xfffffffff61b3cee: gdiuser32 + 0x103cee (xxxBNReleaseCapture + 0xce)
	0xfffffffff61b5b6c: gdiuser32 + 0x105b6c (ButtonWndProcWorker + 0x38c)
	0xfffffffff61b66d0: gdiuser32 + 0x1066d0 (ButtonWndProcW + 0xa0)
	0xfffffffff62309f1: gdiuser32 + 0x1809f1 (MwCallCallWndProc + 0x171)
	0xfffffffff623d841: gdiuser32 + 0x18d841 (MwIDispatchMessage + 0xa1)
	0xfffffffff629e98a: gdiuser32 + 0x1ee98a (DispatchMessageW + 0x4a)
	0xfffffffff61c3ee5: gdiuser32 + 0x113ee5 (IsDialogMessageW + 0xd5)
	0xfffffffff61c441e: gdiuser32 + 0x11441e (IsDialogMessageA + 0x5e)
	0xfffffffff6949d7f: mfc400s + 0x10fd7f (_ZN4CWnd16IsDialogMessageAEP6tagMSG + 0x5f)
	0xfffffffff6907915: mfc400s + 0xcd915 (_ZN4CWnd17PreTranslateInputEP6tagMSG + 0x55)
	0xfffffffff69357f1: mfc400s + 0xfb7f1 (_ZN7CDialog19PreTranslateMessageEP6tagMSG + 0x81)
	0xfffffffff6906cb0: mfc400s + 0xcccb0 (_ZN4CWnd20WalkPreTranslateTreeEP6HWND__P6tagMSG + 0x40)
	0xfffffffff6965d63: mfc400s + 0x12bd63 (_ZN10CWinThread19PreTranslateMessageEP6tagMSG + 0x73)
	0x0986be3b: quartus + 0x1823e3b (_ZN7AFC_APP19PreTranslateMessageEP6tagMSG + 0x29)
	0xfffffffff6965fc5: mfc400s + 0x12bfc5 (_ZN10CWinThread11PumpMessageEv + 0x55)
	0xfffffffff6907a14: mfc400s + 0xcda14 (_ZN4CWnd12RunModalLoopEm + 0xe4)
	0xfffffffff6936848: mfc400s + 0xfc848 (_ZN7CDialog7DoModalEv + 0x328)
	0xffffffffeee00e9e: pgm_pgmw + 0xc4e9e (_ZN16PGMW_DEVICE_TREE13change_deviceEv + 0x4b8)
	0xffffffffeed8f1e4: pgm_pgmw + 0x531e4 (_ZN9PGMW_VIEW14OnChangeDeviceEv + 0x28)
	0xfffffffff694b977: mfc400s + 0x111977 (_Z18_AfxDispatchCmdMsgP10CCmdTargetjiMS_FvvEPvjP18AFX_CMDHANDLERINFO + 0x237)
	0xfffffffff694ba77: mfc400s + 0x111a77 (_ZN10CCmdTarget8OnCmdMsgEjiPvP18AFX_CMDHANDLERINFO + 0xc7)
	0xfffffffff6953391: mfc400s + 0x119391 (_ZN5CView8OnCmdMsgEjiPvP18AFX_CMDHANDLERINFO + 0x41)
	0xfffffffff690c1a6: mfc400s + 0xd21a6 (_ZN9CFrameWnd8OnCmdMsgEjiPvP18AFX_CMDHANDLERINFO + 0x66)
	0xfffffffff69088e5: mfc400s + 0xce8e5 (_ZN4CWnd9OnCommandEjl + 0xb5)
	0xfffffffff690adf9: mfc400s + 0xd0df9 (_ZN9CFrameWnd9OnCommandEjl + 0x69)
	0xfffffffff69053cf: mfc400s + 0xcb3cf (_ZN4CWnd8OnWndMsgEjjlPl + 0x2cf)
	0x0985f69b: quartus + 0x181769b (_ZN15AFC_CHILD_FRAME8OnWndMsgEjjlPl + 0x8f)
	0xfffffffff6904d59: mfc400s + 0xcad59 (_ZN4CWnd10WindowProcEjjl + 0x39)
	0xfffffffff6909623: mfc400s + 0xcf623 (_Z14AfxCallWndProcP4CWndP6HWND__jjl + 0xc3)
	0xfffffffff690a0c3: mfc400s + 0xd00c3 (_Z10AfxWndProcP6HWND__jjl + 0x53)
	0xfffffffff6901e9b: mfc400s + 0xc7e9b (_Z14AfxWndProcBaseP6HWND__jjl + 0x5b)
	0xfffffffff62309f1: gdiuser32 + 0x1809f1 (MwCallCallWndProc + 0x171)
	0xfffffffff623d841: gdiuser32 + 0x18d841 (MwIDispatchMessage + 0xa1)
	0xfffffffff623d9fa: gdiuser32 + 0x18d9fa (DispatchMessageA + 0x4a)
	0xfffffffff6965fed: mfc400s + 0x12bfed (_ZN10CWinThread11PumpMessageEv + 0x7d)
	0xfffffffff6965aea: mfc400s + 0x12baea (_ZN10CWinThread3RunEv + 0x8a)
	0xfffffffff6967b59: mfc400s + 0x12db59 (_ZN7CWinApp3RunEv + 0x29)
	0x0986b82a: quartus + 0x182382a (_ZN7AFC_APP3RunEv + 0x160)
	0xfffffffff69162ed: mfc400s + 0xdc2ed (_Z10AfxWinMainP11HINSTANCE__S0_Pci + 0xad)
	0x0c4ea123: quartus + 0x44a2123 (WinMain + 0x53)
	0x0910e42f: quartus + 0x10c642f (main + 0x9d)
	0x00bc6de3: c.so.6 + 0x14de3 (__libc_start_main + 0xd3)
	0x09067951: quartus + 0x101f951 (__libc_start_main + 0x0)
	</callstack>
	<error>*** Fatal Error: Segment Violation at 0x21c, Module: quartus</error>
	<date>Fri Sep 21 13:55:42 2007</date>
	<version>Quartus II Version 7.1 Build 178 06/25/2007 Service Pack 1 SJ Full Version</version>
	<full_error>
*** Fatal Error: Segment Violation at 0x21c, Module: quartus
Quartus II Version 7.1 Build 178 06/25/2007 Service Pack 1 SJ Full Version </full_error>
</internal_error>
<internal_error>
	<executable>quartus</executable>
	<sub_system>ERR</sub_system>
	<file>/net/swbldl1/build/swbuild/quartus/ccl/msg/msg_internal_error.cpp</file>
	<line>724</line>
	<callstack>
	0xffffffffeabd290c: prj_ppl + 0x15a90c (_ZN8PPL_NODE13get_directionEv + 0x20)
	0xffffffffeab8bb98: prj_ppl + 0x113b98 (_ZN20PPL_PIN_PROPERTY_DLG12OnInitDialogEv + 0x84e)
	0xfffffffff6935726: mfc400s + 0xfb726 (AfxDlgProc + 0x56)
	0xfffffffff61c2952: gdiuser32 + 0x112952 (DefDlgProcWorker + 0x1b2)
	0xfffffffff61c3395: gdiuser32 + 0x113395 (MwIDefDlgProcW + 0x45)
	0xfffffffff61c33f6: gdiuser32 + 0x1133f6 (DefDlgProcW + 0x56)
	0xfffffffff629dab9: gdiuser32 + 0x1edab9 (_ZNK19Direct_Win_Msg_FuncclEPK6tagMSG + 0x29)
	0xfffffffff629c51b: gdiuser32 + 0x1ec51b (_Z15mbs2wcs_win_msgRK15Win_Msg_ContextPK6tagMSG + 0x15b)
	0xfffffffff629c602: gdiuser32 + 0x1ec602 (MwMessageUnicodeConvert + 0x42)
	0xfffffffff623093c: gdiuser32 + 0x18093c (MwCallCallWndProc + 0xbc)
	0xfffffffff623c57a: gdiuser32 + 0x18c57a (MwICallWindowProc + 0x7a)
	0xfffffffff62489b6: gdiuser32 + 0x1989b6 (CallWindowProcA + 0x66)
	0xfffffffff6904439: mfc400s + 0xca439 (_ZN4CWnd14DefWindowProcAEjjl + 0x59)
	0xfffffffff6908d54: mfc400s + 0xced54 (_ZN4CWnd7DefaultEv + 0x54)
	0xfffffffff6936988: mfc400s + 0xfc988 (_ZN7CDialog16HandleInitDialogEjl + 0x68)
	0xfffffffff690532e: mfc400s + 0xcb32e (_ZN4CWnd8OnWndMsgEjjlPl + 0x22e)
	0x0987a0f9: quartus + 0x18320f9 (_ZN10AFC_DIALOG8OnWndMsgEjjlPl + 0x41)
	0xfffffffff6904d59: mfc400s + 0xcad59 (_ZN4CWnd10WindowProcEjjl + 0x39)
	0xfffffffff6909623: mfc400s + 0xcf623 (_Z14AfxCallWndProcP4CWndP6HWND__jjl + 0xc3)
	0xfffffffff690a0c3: mfc400s + 0xd00c3 (_Z10AfxWndProcP6HWND__jjl + 0x53)
	0xfffffffff6901e9b: mfc400s + 0xc7e9b (_Z14AfxWndProcBaseP6HWND__jjl + 0x5b)
	0xfffffffff629dab9: gdiuser32 + 0x1edab9 (_ZNK19Direct_Win_Msg_FuncclEPK6tagMSG + 0x29)
	0xfffffffff62a02a4: gdiuser32 + 0x1f02a4 (_Z15wcs2mbs_win_msgRK15Win_Msg_ContextPK6tagMSG + 0x144)
	0xfffffffff62a0e32: gdiuser32 + 0x1f0e32 (MwMessageAnsiConvert + 0x42)
	0xfffffffff6230904: gdiuser32 + 0x180904 (MwCallCallWndProc + 0x84)
	0xfffffffff623d795: gdiuser32 + 0x18d795 (MwInternalSendMessage + 0x45)
	0xfffffffff6243a5e: gdiuser32 + 0x193a5e (xxxSendMessageTimeout + 0x27e)
	0xfffffffff6245f3f: gdiuser32 + 0x195f3f (SendMessageWorker + 0x6f)
	0xfffffffff61c123c: gdiuser32 + 0x11123c (InternalCreateDialog + 0xf2c)
	0xfffffffff61b9119: gdiuser32 + 0x109119 (CreateDialogIndirectParamAorW + 0x69)
	0xfffffffff61b91c2: gdiuser32 + 0x1091c2 (CreateDialogIndirectParamA + 0x42)
	0xfffffffff6935cfa: mfc400s + 0xfbcfa (_ZN4CWnd17CreateDlgIndirectEPK11DLGTEMPLATEPS_P11HINSTANCE__ + 0x16a)
	0xfffffffff6936637: mfc400s + 0xfc637 (_ZN7CDialog7DoModalEv + 0x117)
	0xffffffffeab1cdba: prj_ppl + 0xa4dba (_ZN8PPL_VIEW17show_pin_propertyEP13PPL_PIN_GLYPH + 0x52)
	0xffffffffeab199f1: prj_ppl + 0xa19f1 (_ZN8PPL_VIEW15on_pin_propertyEv + 0x107)
	0xfffffffff694b977: mfc400s + 0x111977 (_Z18_AfxDispatchCmdMsgP10CCmdTargetjiMS_FvvEPvjP18AFX_CMDHANDLERINFO + 0x237)
	0xfffffffff694ba77: mfc400s + 0x111a77 (_ZN10CCmdTarget8OnCmdMsgEjiPvP18AFX_CMDHANDLERINFO + 0xc7)
	0xfffffffff6953391: mfc400s + 0x119391 (_ZN5CView8OnCmdMsgEjiPvP18AFX_CMDHANDLERINFO + 0x41)
	0xfffffffff690c1a6: mfc400s + 0xd21a6 (_ZN9CFrameWnd8OnCmdMsgEjiPvP18AFX_CMDHANDLERINFO + 0x66)
	0xfffffffff69088e5: mfc400s + 0xce8e5 (_ZN4CWnd9OnCommandEjl + 0xb5)
	0xfffffffff690adf9: mfc400s + 0xd0df9 (_ZN9CFrameWnd9OnCommandEjl + 0x69)
	0xfffffffff69053cf: mfc400s + 0xcb3cf (_ZN4CWnd8OnWndMsgEjjlPl + 0x2cf)
	0x0985f69b: quartus + 0x181769b (_ZN15AFC_CHILD_FRAME8OnWndMsgEjjlPl + 0x8f)
	0xfffffffff6904d59: mfc400s + 0xcad59 (_ZN4CWnd10WindowProcEjjl + 0x39)
	0xfffffffff6909623: mfc400s + 0xcf623 (_Z14AfxCallWndProcP4CWndP6HWND__jjl + 0xc3)
	0xfffffffff6dd8153: ot803as + 0x268153 (_ZN14SECMDIFrameWnd9OnCommandEjl + 0x53)
	0x09872572: quartus + 0x182a572 (_ZN13AFC_MDI_FRAME9OnCommandEjl + 0x42)
	0xfffffffff69053cf: mfc400s + 0xcb3cf (_ZN4CWnd8OnWndMsgEjjlPl + 0x2cf)
	0x090cadbf: quartus + 0x1082dbf (_ZN14PJM_MAIN_FRAME8OnWndMsgEjjlPl + 0x85)
	0xfffffffff6904d59: mfc400s + 0xcad59 (_ZN4CWnd10WindowProcEjjl + 0x39)
	0xfffffffff6dd9014: ot803as + 0x269014 (_ZN14SECMDIFrameWnd10WindowProcEjjl + 0x64)
	0xfffffffff6909623: mfc400s + 0xcf623 (_Z14AfxCallWndProcP4CWndP6HWND__jjl + 0xc3)
	0xfffffffff690a0c3: mfc400s + 0xd00c3 (_Z10AfxWndProcP6HWND__jjl + 0x53)
	0xfffffffff6901e9b: mfc400s + 0xc7e9b (_Z14AfxWndProcBaseP6HWND__jjl + 0x5b)
	0xfffffffff62309f1: gdiuser32 + 0x1809f1 (MwCallCallWndProc + 0x171)
	0xfffffffff623c57a: gdiuser32 + 0x18c57a (MwICallWindowProc + 0x7a)
	0xfffffffff62489b6: gdiuser32 + 0x1989b6 (CallWindowProcA + 0x66)
	0x090ddd2b: quartus + 0x1095d2b (_ZN12CSubclassWnd10WindowProcEjjl + 0x9f)
	0x090db61f: quartus + 0x109361f (_ZN16CCoolMenuManager10WindowProcEjjl + 0x199)
	0x090dde69: quartus + 0x1095e69 (_Z11HookWndProcP6HWND__jjl + 0xf1)
	0xfffffffff62309f1: gdiuser32 + 0x1809f1 (MwCallCallWndProc + 0x171)
	0xfffffffff623d841: gdiuser32 + 0x18d841 (MwIDispatchMessage + 0xa1)
	0xfffffffff623d9fa: gdiuser32 + 0x18d9fa (DispatchMessageA + 0x4a)
	0xfffffffff6965fed: mfc400s + 0x12bfed (_ZN10CWinThread11PumpMessageEv + 0x7d)
	0xfffffffff6965aea: mfc400s + 0x12baea (_ZN10CWinThread3RunEv + 0x8a)
	0xfffffffff6967b59: mfc400s + 0x12db59 (_ZN7CWinApp3RunEv + 0x29)
	0x0986b82a: quartus + 0x182382a (_ZN7AFC_APP3RunEv + 0x160)
	0xfffffffff69162ed: mfc400s + 0xdc2ed (_Z10AfxWinMainP11HINSTANCE__S0_Pci + 0xad)
	0x0c4ea123: quartus + 0x44a2123 (WinMain + 0x53)
	0x0910e42f: quartus + 0x10c642f (main + 0x9d)
	0x00bc6de3: c.so.6 + 0x14de3 (__libc_start_main + 0xd3)
	0x09067951: quartus + 0x101f951 (__libc_start_main + 0x0)
	</callstack>
	<error>*** Fatal Error: Segment Violation at 0xa8, Module: quartus</error>
	<date>Tue Sep 25 15:30:04 2007</date>
	<version>Quartus II Version 7.1 Build 178 06/25/2007 Service Pack 1 SJ Full Version</version>
	<full_error>
*** Fatal Error: Segment Violation at 0xa8, Module: quartus
Quartus II Version 7.1 Build 178 06/25/2007 Service Pack 1 SJ Full Version </full_error>
</internal_error>
